R and data science for public policies
…
- `bind_rows`
- `bind_cols`

---
## dplyr tips & tricks 

```r
rne %>% 
  group_by(`Libellé de la profession`) %>% 
  summarise(n = n()) %>% 
  arrange(desc(n))
```

```
## # A tibble: 66 x 2
##    `Libellé de la profession`                n
##    <chr>                                 <int>
##  1 Employés (secteur privé)              66163
##  2 Agriculteurs propriétaires exploit.   46481
##  3 Retraités salariés privés             42994
##  4 Autres cadres (secteur privé)         25133
##  5 Retraités fonct.publique (sf enseig.) 23050
##  6 Ouvriers (secteur privé)              19393
##  7 Fonctionnaires de catégorie C         19135
##  8 Agents technique et techniciens       17692
##  9 Sans profession déclarée              15562
## 10 Fonctionnaires de catégorie B         15162
## # … with 56 more rows
```

---
---
## dplyr tips & tricks 

```r
rne %>% 
  count(`Libellé de la profession`, sort = TRUE) 
```

```
## # A tibble: 66 x 2
##    `Libellé de la profession`                n
##    <chr>                                 <int>
##  1 Employés (secteur privé)              66163
##  2 Agriculteurs propriétaires exploit.   46481
##  3 Retraités salariés privés             42994
##  4 Autres cadres (secteur privé)         25133
##  5 Retraités fonct.publique (sf enseig.) 23050
##  6 Ouvriers (secteur privé)              19393
##  7 Fonctionnaires de catégorie C         19135
##  8 Agents technique et techniciens       17692
##  9 Sans profession déclarée              15562
## 10 Fonctionnaires de catégorie B         15162
## # … with 56 more rows
```
…
```r
library(sf)
toilets <- read_sf("./data/sanisettesparis2011.geojson")
toilets
```

```
## Simple feature collection with 395 features and 9 fields
## geometry type:  POINT
## dimension:      XY
## bbox:           xmin: 2.254611 ymin: 48.81898 xmax: 2.441133 ymax: 48.90113
## epsg (SRID):    4326
## proj4string:    +proj=longlat +datum=WGS84 +no_defs
## # A tibble: 395 x 10
##    objectid arrondissement nom_voie      y      x numero_voie identifiant
##       <int> <chr>          <chr>     <dbl>  <dbl> <chr>       <chr>      
##  1       10 02             BOULEVA… 1.29e5 6.01e5 85          2/102      
##  2       12 02             RUE REA… 1.30e5 6.01e5 73          2/105      
##  3       13 02             BOULEVA… 1.30e5 6.01e5 109         2/106      
##  4       16 02             BOULEVA… 1.30e5 5.99e5 37          2/111      
##  5       22 02             RUE MON… 1.30e5 6.00e5 117         2/123      
##  6       36 04             RUE DE … 1.29e5 6.01e5 10bis       4/107      
##  7       40 04             RUE DE … 1.28e5 6.01e5 face 50     4/122      
##  8       41 04             RUE SAI… 1.28e5 6.02e5 123         4/127      
##  9       42 04             RUE SAI… 1.29e5 6.01e5 123         4/130      
## 10       45 05             BOULEVA… 1.27e5 6.00e5 88 ter      5/103      
## # … with 385 more rows, and 3 more variables: horaires_ouverture <chr>,
## #   geom_x_y <list>, geometry <POINT [°]>
```
…
