R and data science for public policies
…
- `bind_rows`
- `bind_cols`

---
## dplyr tips & tricks 

```r
rne %>% 
  group_by(`Libellé de la profession`) %>% 
  summarise(n = n()) %>% 
  arrange(desc(n))
```

```
## # A tibble: 66 x 2
##    `Libellé de la profession`                n
##    <chr>                                 <int>
##  1 Employés (secteur privé)              66163
##  2 Agriculteurs propriétaires exploit.   46481
##  3 Retraités salariés privés             42994
##  4 Autres cadres (secteur privé)         25133
##  5 Retraités fonct.publique (sf enseig.) 23050
##  6 Ouvriers (secteur privé)              19393
##  7 Fonctionnaires de catégorie C         19135
##  8 Agents technique et techniciens       17692
##  9 Sans profession déclarée              15562
## 10 Fonctionnaires de catégorie B         15162
## # … with 56 more rows
```

---
---
## dplyr tips & tricks 

```r
rne %>% 
  count(`Libellé de la profession`, sort = TRUE) 
```

```
## # A tibble: 66 x 2
##    `Libellé de la profession`                n
##    <chr>                                 <int>
##  1 Employés (secteur privé)              66163
##  2 Agriculteurs propriétaires exploit.   46481
##  3 Retraités salariés privés             42994
##  4 Autres cadres (secteur privé)         25133
##  5 Retraités fonct.publique (sf enseig.) 23050
##  6 Ouvriers (secteur privé)              19393
##  7 Fonctionnaires de catégorie C         19135
##  8 Agents technique et techniciens       17692
##  9 Sans profession déclarée              15562
## 10 Fonctionnaires de catégorie B         15162
## # … with 56 more rows
```
…
